[
  {
    "id": 1,
    "title": "Love Is Strange",
    "body": "Lorem ipsum dolor sit amet, consectetur adipiscing elit, sed do eiusmod tempor incididunt ut labore et dolore magna aliqua.",
    "author_id": 1
  }
]